module github.com/loxilb-io/loxilb

go 1.18

require (
	github.com/go-openapi/errors v0.20.3
	github.com/go-openapi/loads v0.21.2
	github.com/go-openapi/runtime v0.24.1
	github.com/go-openapi/spec v0.20.7
	github.com/go-openapi/strfmt v0.21.3
	github.com/go-openapi/swag v0.22.3
	github.com/go-openapi/validate v0.22.0
	github.com/jessevdk/go-flags v1.5.0
	github.com/loxilb-io/loxilib v0.8.8
	github.com/osrg/gobgp/v3 v3.5.0
	github.com/prometheus-community/pro-bing v0.1.0
	github.com/prometheus/client_model v0.3.0
	github.com/vishvananda/netlink v1.1.1-0.20210330154013-f5de75959ad5
	golang.org/x/net v0.17.0
	golang.org/x/sys v0.13.0
	google.golang.org/grpc v1.56.3
	google.golang.org/protobuf v1.30.0
)

require (
	github.com/beorn7/perks v1.0.1 // indirect
	github.com/cespare/xxhash/v2 v2.2.0 // indirect
	github.com/loxilb-io/sctp v0.0.0-20230519081703-6d1baec82fd4 // indirect
	github.com/matttproud/golang_protobuf_extensions v1.0.1 // indirect
	github.com/prometheus/common v0.37.0 // indirect
	github.com/prometheus/procfs v0.8.0 // indirect
)

require (
	github.com/asaskevich/govalidator v0.0.0-20210307081110-f21760c49a8d // indirect
	github.com/docker/go-units v0.4.0 // indirect
	github.com/go-openapi/analysis v0.21.4 // indirect
	github.com/go-openapi/jsonpointer v0.19.5 // indirect
	github.com/go-openapi/jsonreference v0.20.0 // indirect
	github.com/golang/protobuf v1.5.3 // indirect
	github.com/google/uuid v1.3.0 // indirect
	github.com/josharian/intern v1.0.0 // indirect
	github.com/mailru/easyjson v0.7.7 // indirect
	github.com/mitchellh/mapstructure v1.4.3 // indirect
	github.com/oklog/ulid v1.3.1 // indirect
	github.com/prometheus/client_golang v1.14.0
	github.com/vishvananda/netns v0.0.0-20200728191858-db3c7e526aae // indirect
	go.mongodb.org/mongo-driver v1.11.6 // indirect
	golang.org/x/sync v0.0.0-20220601150217-0de741cfad7f // indirect
	golang.org/x/text v0.13.0 // indirect
	google.golang.org/genproto v0.0.0-20230410155749-daa745c078e1 // indirect
	gopkg.in/yaml.v3 v3.0.1 // indirect
)
